04/14/22 18:43

Problem 1 (5 points):
Score += 5

Problem 2 (15 points):
Score += 15

Problem 3 (10 points):
Score += 10

Problem 4 (15 points):
Score += 15

Code Quality (5 points):
Score += 5

Total score: 50/50 = 100.0%

Excellent!

-------------------------------------------------------------------------------

